<?xml version='1.0' encoding='UTF-8' ?>
<svg xmlns='http://www.w3.org/2000/svg' xmlns:xlink='http://www.w3.org/1999/xlink' class='svglite' width='288.00pt' height='288.00pt' viewBox='0 0 288.00 288.00'>
<defs>
  <style type='text/css'><![CDATA[
    .svglite line, .svglite polyline, .svglite polygon, .svglite path, .svglite rect, .svglite circle {
      fill: none;
      stroke: #000000;
      stroke-linecap: round;
      stroke-linejoin: round;
      stroke-miterlimit: 10.00;
    }
    .svglite text {
      white-space: pre;
    }
  ]]></style>
</defs>
<rect width='100%' height='100%' style='stroke: none; fill: #FFFFFF;'/>
<defs>
  <clipPath id='cpMC4wMHwyODguMDB8MC4wMHwyODguMDA='>
    <rect x='0.00' y='0.00' width='288.00' height='288.00' />
  </clipPath>
</defs>
<g clip-path='url(#cpMC4wMHwyODguMDB8MC4wMHwyODguMDA=)'>
</g>
<defs>
  <clipPath id='cpMjcuNTV8MjgyLjUyfDUxLjAxfDI2OS40NA=='>
    <rect x='27.55' y='51.01' width='254.97' height='218.43' />
  </clipPath>
</defs>
<g clip-path='url(#cpMjcuNTV8MjgyLjUyfDUxLjAxfDI2OS40NA==)'>
<polyline points='27.55,234.69 282.52,234.69 ' style='stroke-width: 0.53; stroke: #EBEBEB; stroke-linecap: butt;' />
<polyline points='27.55,185.04 282.52,185.04 ' style='stroke-width: 0.53; stroke: #EBEBEB; stroke-linecap: butt;' />
<polyline points='27.55,135.40 282.52,135.40 ' style='stroke-width: 0.53; stroke: #EBEBEB; stroke-linecap: butt;' />
<polyline points='27.55,85.76 282.52,85.76 ' style='stroke-width: 0.53; stroke: #EBEBEB; stroke-linecap: butt;' />
<polyline points='35.14,269.44 35.14,51.01 ' style='stroke-width: 0.53; stroke: #EBEBEB; stroke-linecap: butt;' />
<polyline points='115.07,269.44 115.07,51.01 ' style='stroke-width: 0.53; stroke: #EBEBEB; stroke-linecap: butt;' />
<polyline points='195.00,269.44 195.00,51.01 ' style='stroke-width: 0.53; stroke: #EBEBEB; stroke-linecap: butt;' />
<polyline points='274.93,269.44 274.93,51.01 ' style='stroke-width: 0.53; stroke: #EBEBEB; stroke-linecap: butt;' />
<polyline points='27.55,259.51 282.52,259.51 ' style='stroke-width: 1.07; stroke: #EBEBEB; stroke-linecap: butt;' />
<polyline points='27.55,209.87 282.52,209.87 ' style='stroke-width: 1.07; stroke: #EBEBEB; stroke-linecap: butt;' />
<polyline points='27.55,160.22 282.52,160.22 ' style='stroke-width: 1.07; stroke: #EBEBEB; stroke-linecap: butt;' />
<polyline points='27.55,110.58 282.52,110.58 ' style='stroke-width: 1.07; stroke: #EBEBEB; stroke-linecap: butt;' />
<polyline points='27.55,60.93 282.52,60.93 ' style='stroke-width: 1.07; stroke: #EBEBEB; stroke-linecap: butt;' />
<polyline points='75.10,269.44 75.10,51.01 ' style='stroke-width: 1.07; stroke: #EBEBEB; stroke-linecap: butt;' />
<polyline points='155.03,269.44 155.03,51.01 ' style='stroke-width: 1.07; stroke: #EBEBEB; stroke-linecap: butt;' />
<polyline points='234.96,269.44 234.96,51.01 ' style='stroke-width: 1.07; stroke: #EBEBEB; stroke-linecap: butt;' />
<line x1='27.55' y1='259.51' x2='282.52' y2='259.51' style='stroke-width: 1.07; stroke-linecap: butt;' />
<line x1='27.55' y1='60.93' x2='282.52' y2='60.93' style='stroke-width: 1.07; stroke-linecap: butt;' />
<rect x='75.10' y='135.81' width='35.97' height='123.70' style='stroke-width: 1.07; stroke: none; stroke-linecap: square; stroke-linejoin: miter; fill: #000000; fill-opacity: 0.50;' />
<rect x='39.14' y='178.06' width='35.97' height='81.45' style='stroke-width: 1.07; stroke: none; stroke-linecap: square; stroke-linejoin: miter; fill: #000000; fill-opacity: 0.50;' />
<rect x='155.03' y='114.80' width='35.97' height='144.71' style='stroke-width: 1.07; stroke: none; stroke-linecap: square; stroke-linejoin: miter; fill: #000000; fill-opacity: 0.50;' />
<rect x='119.07' y='191.44' width='35.97' height='68.07' style='stroke-width: 1.07; stroke: none; stroke-linecap: square; stroke-linejoin: miter; fill: #000000; fill-opacity: 0.50;' />
<rect x='198.99' y='94.38' width='35.97' height='165.13' style='stroke-width: 1.07; stroke: none; stroke-linecap: square; stroke-linejoin: miter; fill: #000000; fill-opacity: 0.50;' />
<rect x='234.96' y='67.62' width='35.97' height='191.89' style='stroke-width: 1.07; stroke: none; stroke-linecap: square; stroke-linejoin: miter; fill: #000000; fill-opacity: 0.50;' />
<rect x='39.14' y='156.94' width='71.94' height='102.57' style='stroke-width: 1.07; stroke: none; stroke-linecap: square; stroke-linejoin: miter; fill: #000000; fill-opacity: 0.50;' />
<rect x='119.07' y='153.12' width='71.94' height='106.39' style='stroke-width: 1.07; stroke: none; stroke-linecap: square; stroke-linejoin: miter; fill: #000000; fill-opacity: 0.50;' />
<rect x='198.99' y='81.00' width='71.94' height='178.51' style='stroke-width: 1.07; stroke: none; stroke-linecap: square; stroke-linejoin: miter; fill: #000000; fill-opacity: 0.50;' />
<polygon points='75.10,108.96 63.12,101.45 75.10,95.01 87.09,101.45 75.10,108.96 ' style='stroke-width: 1.07; fill: #000000; fill-opacity: 0.75;' />
<polygon points='155.03,186.45 143.04,170.64 155.03,156.12 167.02,170.64 155.03,186.45 ' style='stroke-width: 1.07; fill: #000000; fill-opacity: 0.75;' />
<polygon points='234.96,212.44 222.97,194.97 234.96,178.55 246.95,194.97 234.96,212.44 ' style='stroke-width: 1.07; fill: #000000; fill-opacity: 0.75;' />
</g>
<g clip-path='url(#cpMC4wMHwyODguMDB8MC4wMHwyODguMDA=)'>
<text x='55.11' y='46.07' text-anchor='middle' style='font-size: 8.80px;fill: #4D4D4D; font-family: "Arial";' textLength='15.16px' lengthAdjust='spacingAndGlyphs'>Exp</text>
<text x='135.00' y='46.07' text-anchor='middle' style='font-size: 8.80px;fill: #4D4D4D; font-family: "Arial";' textLength='9.30px' lengthAdjust='spacingAndGlyphs'>Inj</text>
<text x='214.88' y='46.07' text-anchor='middle' style='font-size: 8.80px;fill: #4D4D4D; font-family: "Arial";' textLength='16.14px' lengthAdjust='spacingAndGlyphs'>Cap</text>
<text x='95.18' y='46.07' text-anchor='middle' style='font-size: 8.80px;fill: #4D4D4D; font-family: "Arial";' textLength='11.74px' lengthAdjust='spacingAndGlyphs'>Ins</text>
<text x='175.07' y='46.07' text-anchor='middle' style='font-size: 8.80px;fill: #4D4D4D; font-family: "Arial";' textLength='15.65px' lengthAdjust='spacingAndGlyphs'>Des</text>
<text x='254.96' y='46.07' text-anchor='middle' style='font-size: 8.80px;fill: #4D4D4D; font-family: "Arial";' textLength='13.21px' lengthAdjust='spacingAndGlyphs'>Aut</text>
<text x='22.62' y='262.66' text-anchor='end' style='font-size: 8.80px;fill: #4D4D4D; font-family: "Arial";' textLength='17.14px' lengthAdjust='spacingAndGlyphs'>0.00</text>
<text x='22.62' y='213.02' text-anchor='end' style='font-size: 8.80px;fill: #4D4D4D; font-family: "Arial";' textLength='17.14px' lengthAdjust='spacingAndGlyphs'>0.25</text>
<text x='22.62' y='163.37' text-anchor='end' style='font-size: 8.80px;fill: #4D4D4D; font-family: "Arial";' textLength='17.14px' lengthAdjust='spacingAndGlyphs'>0.50</text>
<text x='22.62' y='113.73' text-anchor='end' style='font-size: 8.80px;fill: #4D4D4D; font-family: "Arial";' textLength='17.14px' lengthAdjust='spacingAndGlyphs'>0.75</text>
<text x='22.62' y='64.08' text-anchor='end' style='font-size: 8.80px;fill: #4D4D4D; font-family: "Arial";' textLength='17.14px' lengthAdjust='spacingAndGlyphs'>1.00</text>
<text x='75.10' y='280.67' text-anchor='middle' style='font-size: 8.80px;fill: #4D4D4D; font-family: "Arial";' textLength='10.76px' lengthAdjust='spacingAndGlyphs'>Att</text>
<text x='155.03' y='280.67' text-anchor='middle' style='font-size: 8.80px;fill: #4D4D4D; font-family: "Arial";' textLength='12.22px' lengthAdjust='spacingAndGlyphs'>PN</text>
<text x='234.96' y='280.67' text-anchor='middle' style='font-size: 8.80px;fill: #4D4D4D; font-family: "Arial";' textLength='18.09px' lengthAdjust='spacingAndGlyphs'>PBC</text>
<text x='27.55' y='30.34' style='font-size: 10.00px; font-family: "Arial";' textLength='205.62px' lengthAdjust='spacingAndGlyphs'>Not drinking any coffee at all in the next month</text>
<text x='27.55' y='14.93' style='font-size: 13.20px; font-family: "Arial";' textLength='176.48px' lengthAdjust='spacingAndGlyphs'>Coffee consumption cessation</text>
</g>
</svg>
